lab_sum/sim/top.vcd
$date
	Sun Oct 15 23:05:46 2023
$end
$version
	Icarus Verilog
$end
$timescale
	1s
$end
$scope module testbech $end
$var parameter 32 ! INPUT_SIZE $end
$var parameter 32 " OUTPUT_SIZE $end
$var reg 9 # inputs [8:0] $end
$var integer 32 $ i [31:0] $end
$scope module dut $end
$var wire 1 % carry_in $end
$var wire 1 & x0 $end
$var wire 1 ' x1 $end
$var wire 1 ( x2 $end
$var wire 1 ) x3 $end
$var wire 1 * y0 $end
$var wire 1 + y1 $end
$var wire 1 , y2 $end
$var wire 1 - y3 $end
$var wire 1 . third $end
$var wire 1 / second $end
$var wire 1 0 led_h $end
$var wire 1 1 led_g $end
$var wire 1 2 led_f $end
$var wire 1 3 led_e $end
$var wire 1 4 led_d $end
$var wire 1 5 led_c $end
$var wire 1 6 led_b $end
$var wire 1 7 led_a $end
$var wire 1 8 fourth $end
$var wire 1 9 first $end
$var wire 1 : fifth $end
$scope module deco $end
$var wire 1 7 a $end
$var wire 1 6 b $end
$var wire 1 5 c $end
$var wire 1 4 d $end
$var wire 1 3 e $end
$var wire 1 2 f $end
$var wire 1 1 g $end
$var wire 1 0 h $end
$var wire 1 ; s4 $end
$var wire 1 < s5 $end
$var wire 1 = s6 $end
$var wire 1 > s7 $end
$var wire 1 8 s3 $end
$var wire 1 . s2 $end
$var wire 1 / s1 $end
$var wire 1 9 s0 $end
$var wire 1 : c0 $end
$upscope $end
$scope module full_sum0 $end
$var wire 1 * in_a0 $end
$var wire 1 + in_a1 $end
$var wire 1 , in_a2 $end
$var wire 1 - in_a3 $end
$var wire 1 & in_b0 $end
$var wire 1 ' in_b1 $end
$var wire 1 ( in_b2 $end
$var wire 1 ) in_b3 $end
$var wire 1 % in_cy $end
$var wire 1 8 out_s3 $end
$var wire 1 . out_s2 $end
$var wire 1 / out_s1 $end
$var wire 1 9 out_s0 $end
$var wire 1 : out_cy0 $end
$var wire 1 ? f_out_cy2_f_in_cy3 $end
$var wire 1 @ f_out_cy1_f_in_cy2 $end
$var wire 1 A f_out_cy0_f_in_cy1 $end
$scope module sum0 $end
$var wire 1 * in_a $end
$var wire 1 & in_b $end
$var wire 1 % in_cy $end
$var wire 1 A out_cy $end
$var wire 1 9 out_sum $end
$upscope $end
$scope module sum1 $end
$var wire 1 + in_a $end
$var wire 1 ' in_b $end
$var wire 1 A in_cy $end
$var wire 1 @ out_cy $end
$var wire 1 / out_sum $end
$upscope $end
$scope module sum2 $end
$var wire 1 , in_a $end
$var wire 1 ( in_b $end
$var wire 1 @ in_cy $end
$var wire 1 ? out_cy $end
$var wire 1 . out_sum $end
$upscope $end
$scope module sum3 $end
$var wire 1 - in_a $end
$var wire 1 ) in_b $end
$var wire 1 ? in_cy $end
$var wire 1 : out_cy $end
$var wire 1 8 out_sum $end
$upscope $end
$upscope $end
$upscope $end
$upscope $end
$enddefinitions $end
$comment Show the parameter values. $end
$dumpall
b1000 "
b1001 !
$end
#0
$dumpvars
0A
0@
0?
1>
1=
1<
1;
0:
09
08
07
06
05
04
03
02
11
10
0/
0.
0-
0,
0+
0*
0)
0(
0'
0&
0%
b0 $
b0 #
$end
#1
14
17
12
13
0>
19
1&
b1 #
b1 $
#2
04
07
15
03
01
1>
0;
09
1/
0&
1'
b10 #
b10 $
#3
05
13
0>
19
1&
b11 #
b11 $
#4
17
02
01
14
1>
1;
0<
09
0/
1.
0&
0'
1(
b100 #
b100 $
#5
04
16
07
0>
19
1&
b101 #
b101 $
#6
03
1>
0;
09
1/
0&
1'
b110 #
b110 $
#7
06
12
11
14
13
0>
19
1&
b111 #
b111 $
#8
02
03
04
06
01
05
1>
1;
1<
0=
09
0/
0.
18
0&
0'
0(
1)
b1000 #
b1000 $
#9
13
0>
19
1&
b1001 #
b1001 $
#10
14
03
1>
0;
09
1/
0&
1'
b1010 #
b1010 $
#11
17
04
16
0>
19
1&
b1011 #
b1011 $
#12
15
12
04
1>
1;
0<
09
0/
1.
0&
0'
1(
b1100 #
b1100 $
#13
05
06
0>
19
1&
b1101 #
b1101 $
#14
16
07
02
15
1>
0;
09
1/
0&
1'
b1110 #
b1110 $
#15
14
0>
19
1&
b1111 #
b1111 $
#16
17
12
11
13
14
06
05
1;
1<
1=
0/
0.
08
0&
0'
0(
0)
1*
b10000 #
b10000 $
#17
04
07
15
01
03
0;
1>
1/
09
1A
1&
b10001 #
b10001 $
#18
06
07
05
04
12
01
13
1<
0.
0>
0;
0@
19
0A
1/
0&
1'
b10010 #
b10010 $
#19
14
17
02
01
0<
13
1.
1;
1@
1>
0/
09
1A
1&
b10011 #
b10011 $
#20
07
13
04
02
16
1=
08
0>
1;
0@
0<
0?
19
0A
0/
1.
0&
0'
1(
b10100 #
b10100 $
#21
03
0;
1>
1/
09
1A
1&
b10101 #
b10101 $
#22
11
12
07
14
05
06
1=
08
13
0<
0?
1.
0>
0;
0@
19
0A
1/
0&
1'
b10110 #
b10110 $
#23
0=
02
18
01
04
1<
1?
03
0.
1;
1@
1>
0/
09
1A
1&
b10111 #
b10111 $
#24
04
02
05
06
07
13
01
10
0>
1;
0@
1<
0?
0=
0:
19
0A
0/
0.
18
0&
0'
0(
1)
b11000 #
b11000 $
#25
14
03
0;
1>
1/
09
1A
1&
b11001 #
b11001 $
#26
04
16
03
05
17
02
1<
0.
0>
0;
0@
19
0A
1/
0&
1'
b11010 #
b11010 $
#27
15
12
16
0<
1.
1;
1@
1>
0/
09
1A
1&
b11011 #
b11011 $
#28
05
03
01
04
10
12
06
17
0=
0:
18
0>
1;
0@
0<
0?
19
0A
0/
1.
0&
0'
1(
b11100 #
b11100 $
#29
07
02
16
15
0;
1>
1/
09
1A
1&
b11101 #
b11101 $
#30
03
02
16
01
14
10
15
0=
0:
18
0<
0?
1.
0>
0;
0@
19
0A
1/
0&
1'
b11110 #
b11110 $
#31
11
00
06
1=
1:
08
04
05
1<
1?
0.
1;
1@
1>
0/
09
1A
1&
b11111 #
b11111 $
#32
15
12
07
01
10
0;
0@
1<
0?
1=
0:
1/
0.
08
0A
0&
0'
0(
0)
0*
1+
b100000 #
b100000 $
#33
05
13
0>
19
1&
b100001 #
b100001 $
#34
14
17
02
0<
1>
1;
1.
09
0/
1@
0&
1'
b100010 #
b100010 $
#35
04
16
07
0>
19
1&
b100011 #
b100011 $
#36
16
02
05
03
1=
08
1>
0;
0<
0?
09
1/
0@
1.
0&
0'
1(
b100100 #
b100100 $
#37
06
12
11
14
13
0>
19
1&
b100101 #
b100101 $
#38
01
02
04
0=
03
18
1<
1?
1>
1;
0.
09
0/
1@
0&
1'
b100110 #
b100110 $
#39
13
0>
19
1&
b100111 #
b100111 $
#40
06
14
03
02
05
07
01
10
1>
0;
1<
0?
0=
0:
09
1/
0@
0.
18
0&
0'
0(
1)
b101000 #
b101000 $
#41
17
04
16
0>
19
1&
b101001 #
b101001 $
#42
15
12
0<
1>
1;
1.
09
0/
1@
0&
1'
b101010 #
b101010 $
#43
05
06
0>
19
1&
b101011 #
b101011 $
#44
15
16
10
02
07
0=
0:
18
1>
0;
0<
0?
09
1/
0@
1.
0&
0'
1(
b101100 #
b101100 $
#45
14
0>
19
1&
b101101 #
b101101 $
#46
11
00
06
04
1=
1:
05
08
1<
1?
1>
1;
0.
09
0/
1@
0&
1'
b101110 #
b101110 $
#47
14
17
12
13
0>
19
1&
b101111 #
b101111 $
#48
07
04
12
13
01
10
0;
1<
0?
1=
0:
1/
0@
0.
08
0&
0'
0(
0)
1*
b110000 #
b110000 $
#49
14
17
02
01
0<
13
1.
1;
1@
1>
0/
09
1A
1&
b110001 #
b110001 $
#50
04
07
02
16
01
0>
1;
19
0A
0/
0&
1'
b110010 #
b110010 $
#51
03
0;
1>
1/
09
1A
1&
b110011 #
b110011 $
#52
06
11
07
12
14
13
1=
0@
08
0>
0;
0<
0?
19
0A
1/
1.
0&
0'
1(
b110100 #
b110100 $
#53
0=
02
18
01
04
1<
1?
03
0.
1;
1@
1>
0/
09
1A
1&
b110101 #
b110101 $
#54
13
07
04
06
0>
1;
19
0A
0/
0&
1'
b110110 #
b110110 $
#55
14
03
0;
1>
1/
09
1A
1&
b110111 #
b110111 $
#56
02
17
05
03
16
0@
04
10
0>
0;
1<
0?
0=
0:
19
0A
1/
0.
18
0&
0'
0(
1)
b111000 #
b111000 $
#57
15
12
16
0<
1.
1;
1@
1>
0/
09
1A
1&
b111001 #
b111001 $
#58
05
06
04
12
0>
1;
19
0A
0/
0&
1'
b111010 #
b111010 $
#59
07
02
16
15
0;
1>
1/
09
1A
1&
b111011 #
b111011 $
#60
07
02
14
03
01
10
15
16
0=
0:
0@
18
0>
0;
0<
0?
19
0A
1/
1.
0&
0'
1(
b111100 #
b111100 $
#61
11
00
06
1=
1:
08
04
05
1<
1?
0.
1;
1@
1>
0/
09
1A
1&
b111101 #
b111101 $
#62
17
14
05
12
11
13
0>
1;
19
0A
0/
0&
1'
b111110 #
b111110 $
#63
04
07
15
01
03
0;
1>
1/
09
1A
1&
b111111 #
b111111 $
#64
17
13
06
05
02
14
10
1;
0<
0?
1=
0:
0/
1.
08
0A
0@
0&
0'
0(
0)
0*
0+
1,
b1000000 #
b1000000 $
#65
04
16
07
0>
19
1&
b1000001 #
b1000001 $
#66
03
1>
0;
09
1/
0&
1'
b1000010 #
b1000010 $
#67
06
12
11
14
13
0>
19
1&
b1000011 #
b1000011 $
#68
02
03
01
04
0=
1>
1;
1<
18
09
0/
0.
1?
0&
0'
1(
b1000100 #
b1000100 $
#69
13
0>
19
1&
b1000101 #
b1000101 $
#70
14
03
1>
0;
09
1/
0&
1'
b1000110 #
b1000110 $
#71
17
04
16
0>
19
1&
b1000111 #
b1000111 $
#72
15
12
04
16
17
01
10
1>
1;
0<
0=
0:
09
0/
1.
0?
18
0&
0'
0(
1)
b1001000 #
b1001000 $
#73
05
06
0>
19
1&
b1001001 #
b1001001 $
#74
16
07
02
15
1>
0;
09
1/
0&
1'
b1001010 #
b1001010 $
#75
14
0>
19
1&
b1001011 #
b1001011 $
#76
06
11
04
05
00
1=
1:
1>
1;
1<
08
09
0/
0.
1?
0&
0'
1(
b1001100 #
b1001100 $
#77
14
17
12
13
0>
19
1&
b1001101 #
b1001101 $
#78
04
07
15
03
01
1>
0;
09
1/
0&
1'
b1001110 #
b1001110 $
#79
05
13
0>
19
1&
b1001111 #
b1001111 $
#80
02
04
16
07
10
1;
0<
1=
0:
0/
1.
0?
08
0&
0'
0(
0)
1*
b1010000 #
b1010000 $
#81
03
0;
1>
1/
09
1A
1&
b1010001 #
b1010001 $
#82
11
12
07
14
05
06
1=
08
13
0<
0?
1.
0>
0;
0@
19
0A
1/
0&
1'
b1010010 #
b1010010 $
#83
0=
02
18
01
04
1<
1?
03
0.
1;
1@
1>
0/
09
1A
1&
b1010011 #
b1010011 $
#84
13
02
05
06
07
0>
1;
0@
1<
19
0A
0/
0.
0&
0'
1(
b1010100 #
b1010100 $
#85
14
03
0;
1>
1/
09
1A
1&
b1010101 #
b1010101 $
#86
04
16
03
05
17
02
1<
0.
0>
0;
0@
19
0A
1/
0&
1'
b1010110 #
b1010110 $
#87
15
12
16
0<
1.
1;
1@
1>
0/
09
1A
1&
b1010111 #
b1010111 $
#88
01
04
17
03
0?
05
12
06
10
0>
1;
0@
0<
0=
0:
19
0A
0/
1.
18
0&
0'
0(
1)
b1011000 #
b1011000 $
#89
07
02
16
15
0;
1>
1/
09
1A
1&
b1011001 #
b1011001 $
#90
03
02
16
01
14
10
15
0=
0:
18
0<
0?
1.
0>
0;
0@
19
0A
1/
0&
1'
b1011010 #
b1011010 $
#91
11
00
06
1=
1:
08
04
05
1<
1?
0.
1;
1@
1>
0/
09
1A
1&
b1011011 #
b1011011 $
#92
12
14
17
11
13
0>
1;
0@
1<
19
0A
0/
0.
0&
0'
1(
b1011100 #
b1011100 $
#93
04
07
15
01
03
0;
1>
1/
09
1A
1&
b1011101 #
b1011101 $
#94
06
07
05
04
12
01
13
1<
0.
0>
0;
0@
19
0A
1/
0&
1'
b1011110 #
b1011110 $
#95
14
17
02
01
0<
13
1.
1;
1@
1>
0/
09
1A
1&
b1011111 #
b1011111 $
#96
04
0?
07
05
03
02
16
10
0;
0@
0<
1=
0:
1/
1.
08
0A
0&
0'
0(
0)
0*
1+
b1100000 #
b1100000 $
#97
06
12
11
14
13
0>
19
1&
b1100001 #
b1100001 $
#98
01
02
04
0=
03
18
1<
1?
1>
1;
0.
09
0/
1@
0&
1'
b1100010 #
b1100010 $
#99
13
0>
19
1&
b1100011 #
b1100011 $
#100
14
03
02
05
07
1>
0;
1<
09
1/
0@
0.
0&
0'
1(
b1100100 #
b1100100 $
#101
17
04
16
0>
19
1&
b1100101 #
b1100101 $
#102
15
12
0<
1>
1;
1.
09
0/
1@
0&
1'
b1100110 #
b1100110 $
#103
05
06
0>
19
1&
b1100111 #
b1100111 $
#104
15
16
0?
02
07
10
1>
0;
0<
0=
0:
09
1/
0@
1.
18
0&
0'
0(
1)
b1101000 #
b1101000 $
#105
14
0>
19
1&
b1101001 #
b1101001 $
#106
11
00
06
04
1=
1:
05
08
1<
1?
1>
1;
0.
09
0/
1@
0&
1'
b1101010 #
b1101010 $
#107
14
17
12
13
0>
19
1&
b1101011 #
b1101011 $
#108
15
07
04
06
03
01
1>
0;
1<
09
1/
0@
0.
0&
0'
1(
b1101100 #
b1101100 $
#109
05
13
0>
19
1&
b1101101 #
b1101101 $
#110
14
17
02
0<
1>
1;
1.
09
0/
1@
0&
1'
b1101110 #
b1101110 $
#111
04
16
07
0>
19
1&
b1101111 #
b1101111 $
#112
06
11
13
14
0?
12
07
10
0;
0<
1=
0:
1/
0@
1.
08
0&
0'
0(
0)
1*
b1110000 #
b1110000 $
#113
0=
02
18
01
04
1<
1?
03
0.
1;
1@
1>
0/
09
1A
1&
b1110001 #
b1110001 $
#114
13
07
04
06
0>
1;
19
0A
0/
0&
1'
b1110010 #
b1110010 $
#115
14
03
0;
1>
1/
09
1A
1&
b1110011 #
b1110011 $
#116
17
02
05
04
16
0@
0>
0;
1<
19
0A
1/
0.
0&
0'
1(
b1110100 #
b1110100 $
#117
15
12
16
0<
1.
1;
1@
1>
0/
09
1A
1&
b1110101 #
b1110101 $
#118
05
06
04
12
0>
1;
19
0A
0/
0&
1'
b1110110 #
b1110110 $
#119
07
02
16
15
0;
1>
1/
09
1A
1&
b1110111 #
b1110111 $
#120
07
14
02
0?
16
01
03
0@
15
10
0>
0;
0<
0=
0:
19
0A
1/
1.
18
0&
0'
0(
1)
b1111000 #
b1111000 $
#121
11
00
06
1=
1:
08
04
05
1<
1?
0.
1;
1@
1>
0/
09
1A
1&
b1111001 #
b1111001 $
#122
17
14
05
12
11
13
0>
1;
19
0A
0/
0&
1'
b1111010 #
b1111010 $
#123
04
07
15
01
03
0;
1>
1/
09
1A
1&
b1111011 #
b1111011 $
#124
05
12
06
13
0@
0>
0;
1<
19
0A
1/
0.
0&
0'
1(
b1111100 #
b1111100 $
#125
14
17
02
01
0<
13
1.
1;
1@
1>
0/
09
1A
1&
b1111101 #
b1111101 $
#126
04
07
02
16
01
0>
1;
19
0A
0/
0&
1'
b1111110 #
b1111110 $
#127
03
0;
1>
1/
09
1A
1&
b1111111 #
b1111111 $
#128
06
05
10
1;
1<
0=
0:
0/
0.
18
0A
0@
0?
0&
0'
0(
0)
0*
0+
0,
1-
b10000000 #
b10000000 $
#129
13
0>
19
1&
b10000001 #
b10000001 $
#130
14
03
1>
0;
09
1/
0&
1'
b10000010 #
b10000010 $
#131
17
04
16
0>
19
1&
b10000011 #
b10000011 $
#132
15
12
04
1>
1;
0<
09
0/
1.
0&
0'
1(
b10000100 #
b10000100 $
#133
05
06
0>
19
1&
b10000101 #
b10000101 $
#134
16
07
02
15
1>
0;
09
1/
0&
1'
b10000110 #
b10000110 $
#135
14
0>
19
1&
b10000111 #
b10000111 $
#136
11
04
06
05
1>
1;
1<
1=
00
09
0/
0.
08
1:
0&
0'
0(
1)
b10001000 #
b10001000 $
#137
14
17
12
13
0>
19
1&
b10001001 #
b10001001 $
#138
04
07
15
03
01
1>
0;
09
1/
0&
1'
b10001010 #
b10001010 $
#139
05
13
0>
19
1&
b10001011 #
b10001011 $
#140
17
02
01
14
1>
1;
0<
09
0/
1.
0&
0'
1(
b10001100 #
b10001100 $
#141
04
16
07
0>
19
1&
b10001101 #
b10001101 $
#142
03
1>
0;
09
1/
0&
1'
b10001110 #
b10001110 $
#143
06
12
11
14
13
0>
19
1&
b10001111 #
b10001111 $
#144
02
13
04
06
01
05
1;
1<
0=
10
0/
0.
18
0:
0&
0'
0(
0)
1*
b10010000 #
b10010000 $
#145
14
03
0;
1>
1/
09
1A
1&
b10010001 #
b10010001 $
#146
04
16
03
05
17
02
1<
0.
0>
0;
0@
19
0A
1/
0&
1'
b10010010 #
b10010010 $
#147
15
12
16
0<
1.
1;
1@
1>
0/
09
1A
1&
b10010011 #
b10010011 $
#148
05
03
01
04
10
12
06
17
0=
0:
18
0>
1;
0@
0<
0?
19
0A
0/
1.
0&
0'
1(
b10010100 #
b10010100 $
#149
07
02
16
15
0;
1>
1/
09
1A
1&
b10010101 #
b10010101 $
#150
03
02
16
01
14
10
15
0=
0:
18
0<
0?
1.
0>
0;
0@
19
0A
1/
0&
1'
b10010110 #
b10010110 $
#151
11
00
06
1=
1:
08
04
05
1<
1?
0.
1;
1@
1>
0/
09
1A
1&
b10010111 #
b10010111 $
#152
14
12
13
17
11
0>
1;
0@
1<
0?
1=
19
0A
0/
0.
08
0&
0'
0(
1)
b10011000 #
b10011000 $
#153
04
07
15
01
03
0;
1>
1/
09
1A
1&
b10011001 #
b10011001 $
#154
06
07
05
04
12
01
13
1<
0.
0>
0;
0@
19
0A
1/
0&
1'
b10011010 #
b10011010 $
#155
14
17
02
01
0<
13
1.
1;
1@
1>
0/
09
1A
1&
b10011011 #
b10011011 $
#156
07
13
04
02
16
1=
08
0>
1;
0@
0<
0?
19
0A
0/
1.
0&
0'
1(
b10011100 #
b10011100 $
#157
03
0;
1>
1/
09
1A
1&
b10011101 #
b10011101 $
#158
11
12
07
14
05
06
1=
08
13
0<
0?
1.
0>
0;
0@
19
0A
1/
0&
1'
b10011110 #
b10011110 $
#159
0=
02
18
01
04
1<
1?
03
0.
1;
1@
1>
0/
09
1A
1&
b10011111 #
b10011111 $
#160
14
10
02
05
06
07
0:
03
01
0;
0@
1<
0?
0=
1/
0.
18
0A
0&
0'
0(
0)
0*
1+
b10100000 #
b10100000 $
#161
17
04
16
0>
19
1&
b10100001 #
b10100001 $
#162
15
12
0<
1>
1;
1.
09
0/
1@
0&
1'
b10100010 #
b10100010 $
#163
05
06
0>
19
1&
b10100011 #
b10100011 $
#164
15
16
10
02
07
0=
0:
18
1>
0;
0<
0?
09
1/
0@
1.
0&
0'
1(
b10100100 #
b10100100 $
#165
14
0>
19
1&
b10100101 #
b10100101 $
#166
11
00
06
04
1=
1:
05
08
1<
1?
1>
1;
0.
09
0/
1@
0&
1'
b10100110 #
b10100110 $
#167
14
17
12
13
0>
19
1&
b10100111 #
b10100111 $
#168
15
07
04
12
03
01
1>
0;
1<
0?
1=
09
1/
0@
0.
08
0&
0'
0(
1)
b10101000 #
b10101000 $
#169
05
13
0>
19
1&
b10101001 #
b10101001 $
#170
14
17
02
0<
1>
1;
1.
09
0/
1@
0&
1'
b10101010 #
b10101010 $
#171
04
16
07
0>
19
1&
b10101011 #
b10101011 $
#172
16
02
05
03
1=
08
1>
0;
0<
0?
09
1/
0@
1.
0&
0'
1(
b10101100 #
b10101100 $
#173
06
12
11
14
13
0>
19
1&
b10101101 #
b10101101 $
#174
01
02
04
0=
03
18
1<
1?
1>
1;
0.
09
0/
1@
0&
1'
b10101110 #
b10101110 $
#175
13
0>
19
1&
b10101111 #
b10101111 $
#176
03
04
16
10
02
05
17
0:
01
0;
1<
0?
0=
1/
0@
0.
18
0&
0'
0(
0)
1*
b10110000 #
b10110000 $
#177
15
12
16
0<
1.
1;
1@
1>
0/
09
1A
1&
b10110001 #
b10110001 $
#178
05
06
04
12
0>
1;
19
0A
0/
0&
1'
b10110010 #
b10110010 $
#179
07
02
16
15
0;
1>
1/
09
1A
1&
b10110011 #
b10110011 $
#180
07
02
14
03
01
10
15
16
0=
0:
0@
18
0>
0;
0<
0?
19
0A
1/
1.
0&
0'
1(
b10110100 #
b10110100 $
#181
11
00
06
1=
1:
08
04
05
1<
1?
0.
1;
1@
1>
0/
09
1A
1&
b10110101 #
b10110101 $
#182
17
14
05
12
11
13
0>
1;
19
0A
0/
0&
1'
b10110110 #
b10110110 $
#183
04
07
15
01
03
0;
1>
1/
09
1A
1&
b10110111 #
b10110111 $
#184
13
06
05
12
0@
04
0>
0;
1<
0?
1=
19
0A
1/
0.
08
0&
0'
0(
1)
b10111000 #
b10111000 $
#185
14
17
02
01
0<
13
1.
1;
1@
1>
0/
09
1A
1&
b10111001 #
b10111001 $
#186
04
07
02
16
01
0>
1;
19
0A
0/
0&
1'
b10111010 #
b10111010 $
#187
03
0;
1>
1/
09
1A
1&
b10111011 #
b10111011 $
#188
06
11
07
12
14
13
1=
0@
08
0>
0;
0<
0?
19
0A
1/
1.
0&
0'
1(
b10111100 #
b10111100 $
#189
0=
02
18
01
04
1<
1?
03
0.
1;
1@
1>
0/
09
1A
1&
b10111101 #
b10111101 $
#190
13
07
04
06
0>
1;
19
0A
0/
0&
1'
b10111110 #
b10111110 $
#191
14
03
0;
1>
1/
09
1A
1&
b10111111 #
b10111111 $
#192
12
17
10
15
16
0:
04
1;
0<
0?
0=
0/
1.
18
0A
0@
0&
0'
0(
0)
0*
0+
1,
b11000000 #
b11000000 $
#193
05
06
0>
19
1&
b11000001 #
b11000001 $
#194
16
07
02
15
1>
0;
09
1/
0&
1'
b11000010 #
b11000010 $
#195
14
0>
19
1&
b11000011 #
b11000011 $
#196
06
11
04
05
00
1=
1:
1>
1;
1<
08
09
0/
0.
1?
0&
0'
1(
b11000100 #
b11000100 $
#197
14
17
12
13
0>
19
1&
b11000101 #
b11000101 $
#198
04
07
15
03
01
1>
0;
09
1/
0&
1'
b11000110 #
b11000110 $
#199
05
13
0>
19
1&
b11000111 #
b11000111 $
#200
02
14
06
17
1>
1;
0<
1=
09
0/
1.
0?
08
0&
0'
0(
1)
b11001000 #
b11001000 $
#201
04
16
07
0>
19
1&
b11001001 #
b11001001 $
#202
03
1>
0;
09
1/
0&
1'
b11001010 #
b11001010 $
#203
06
12
11
14
13
0>
19
1&
b11001011 #
b11001011 $
#204
02
03
01
04
0=
1>
1;
1<
18
09
0/
0.
1?
0&
0'
1(
b11001100 #
b11001100 $
#205
13
0>
19
1&
b11001101 #
b11001101 $
#206
14
03
1>
0;
09
1/
0&
1'
b11001110 #
b11001110 $
#207
17
04
16
0>
19
1&
b11001111 #
b11001111 $
#208
12
03
04
10
06
17
01
0:
1;
0<
0=
0/
1.
0?
18
0&
0'
0(
0)
1*
b11010000 #
b11010000 $
#209
07
02
16
15
0;
1>
1/
09
1A
1&
b11010001 #
b11010001 $
#210
03
02
16
01
14
10
15
0=
0:
18
0<
0?
1.
0>
0;
0@
19
0A
1/
0&
1'
b11010010 #
b11010010 $
#211
11
00
06
1=
1:
08
04
05
1<
1?
0.
1;
1@
1>
0/
09
1A
1&
b11010011 #
b11010011 $
#212
12
14
17
11
13
0>
1;
0@
1<
19
0A
0/
0.
0&
0'
1(
b11010100 #
b11010100 $
#213
04
07
15
01
03
0;
1>
1/
09
1A
1&
b11010101 #
b11010101 $
#214
06
07
05
04
12
01
13
1<
0.
0>
0;
0@
19
0A
1/
0&
1'
b11010110 #
b11010110 $
#215
14
17
02
01
0<
13
1.
1;
1@
1>
0/
09
1A
1&
b11010111 #
b11010111 $
#216
07
04
0?
05
13
02
16
0>
1;
0@
0<
1=
19
0A
0/
1.
08
0&
0'
0(
1)
b11011000 #
b11011000 $
#217
03
0;
1>
1/
09
1A
1&
b11011001 #
b11011001 $
#218
11
12
07
14
05
06
1=
08
13
0<
0?
1.
0>
0;
0@
19
0A
1/
0&
1'
b11011010 #
b11011010 $
#219
0=
02
18
01
04
1<
1?
03
0.
1;
1@
1>
0/
09
1A
1&
b11011011 #
b11011011 $
#220
13
02
05
06
07
0>
1;
0@
1<
19
0A
0/
0.
0&
0'
1(
b11011100 #
b11011100 $
#221
14
03
0;
1>
1/
09
1A
1&
b11011101 #
b11011101 $
#222
04
16
03
05
17
02
1<
0.
0>
0;
0@
19
0A
1/
0&
1'
b11011110 #
b11011110 $
#223
15
12
16
0<
1.
1;
1@
1>
0/
09
1A
1&
b11011111 #
b11011111 $
#224
10
0:
07
0?
15
02
16
0;
0@
0<
0=
1/
1.
18
0A
0&
0'
0(
0)
0*
1+
b11100000 #
b11100000 $
#225
14
0>
19
1&
b11100001 #
b11100001 $
#226
11
00
06
04
1=
1:
05
08
1<
1?
1>
1;
0.
09
0/
1@
0&
1'
b11100010 #
b11100010 $
#227
14
17
12
13
0>
19
1&
b11100011 #
b11100011 $
#228
15
07
04
06
03
01
1>
0;
1<
09
1/
0@
0.
0&
0'
1(
b11100100 #
b11100100 $
#229
05
13
0>
19
1&
b11100101 #
b11100101 $
#230
14
17
02
0<
1>
1;
1.
09
0/
1@
0&
1'
b11100110 #
b11100110 $
#231
04
16
07
0>
19
1&
b11100111 #
b11100111 $
#232
16
03
0?
02
07
1>
0;
0<
1=
09
1/
0@
1.
08
0&
0'
0(
1)
b11101000 #
b11101000 $
#233
06
12
11
14
13
0>
19
1&
b11101001 #
b11101001 $
#234
01
02
04
0=
03
18
1<
1?
1>
1;
0.
09
0/
1@
0&
1'
b11101010 #
b11101010 $
#235
13
0>
19
1&
b11101011 #
b11101011 $
#236
14
03
02
05
07
1>
0;
1<
09
1/
0@
0.
0&
0'
1(
b11101100 #
b11101100 $
#237
17
04
16
0>
19
1&
b11101101 #
b11101101 $
#238
15
12
0<
1>
1;
1.
09
0/
1@
0&
1'
b11101110 #
b11101110 $
#239
05
06
0>
19
1&
b11101111 #
b11101111 $
#240
16
10
01
14
15
0:
03
0?
02
07
0;
0<
0=
1/
0@
1.
18
0&
0'
0(
0)
1*
b11110000 #
b11110000 $
#241
11
00
06
1=
1:
08
04
05
1<
1?
0.
1;
1@
1>
0/
09
1A
1&
b11110001 #
b11110001 $
#242
17
14
05
12
11
13
0>
1;
19
0A
0/
0&
1'
b11110010 #
b11110010 $
#243
04
07
15
01
03
0;
1>
1/
09
1A
1&
b11110011 #
b11110011 $
#244
05
12
06
13
0@
0>
0;
1<
19
0A
1/
0.
0&
0'
1(
b11110100 #
b11110100 $
#245
14
17
02
01
0<
13
1.
1;
1@
1>
0/
09
1A
1&
b11110101 #
b11110101 $
#246
04
07
02
16
01
0>
1;
19
0A
0/
0&
1'
b11110110 #
b11110110 $
#247
03
0;
1>
1/
09
1A
1&
b11110111 #
b11110111 $
#248
12
11
07
14
0?
13
06
0@
05
0>
0;
0<
1=
19
0A
1/
1.
08
0&
0'
0(
1)
b11111000 #
b11111000 $
#249
0=
02
18
01
04
1<
1?
03
0.
1;
1@
1>
0/
09
1A
1&
b11111001 #
b11111001 $
#250
13
07
04
06
0>
1;
19
0A
0/
0&
1'
b11111010 #
b11111010 $
#251
14
03
0;
1>
1/
09
1A
1&
b11111011 #
b11111011 $
#252
17
02
05
04
16
0@
0>
0;
1<
19
0A
1/
0.
0&
0'
1(
b11111100 #
b11111100 $
#253
15
12
16
0<
1.
1;
1@
1>
0/
09
1A
1&
b11111101 #
b11111101 $
#254
05
06
04
12
0>
1;
19
0A
0/
0&
1'
b11111110 #
b11111110 $
#255
07
02
16
15
0;
1>
1/
09
1A
1&
b11111111 #
b11111111 $
#256
17
11
12
13
06
1;
05
14
0/
1<
1=
0A
0.
08
10
0@
0?
0:
0>
19
0&
0'
0(
0)
0*
0+
0,
0-
1%
b100000000 #
b100000000 $
#257
04
07
15
01
03
0;
1/
1>
1A
09
1&
b100000001 #
b100000001 $
#258
04
06
07
05
12
01
13
1<
0.
0>
0A
0;
0@
19
1/
0&
1'
b100000010 #
b100000010 $
#259
14
17
01
02
0<
1.
13
1;
1@
0/
1>
1A
09
1&
b100000011 #
b100000011 $
#260
07
04
02
16
1=
08
0>
0A
1;
0@
0<
0?
19
0/
1.
0&
0'
1(
b100000100 #
b100000100 $
#261
04
07
03
0;
1/
1>
1A
09
1&
b100000101 #
b100000101 $
#262
11
07
12
14
06
1=
08
13
0<
0?
1.
0>
0A
0;
0@
19
1/
0&
1'
b100000110 #
b100000110 $
#263
0=
18
02
1<
1?
01
04
0.
03
1;
1@
0/
1>
1A
09
1&
b100000111 #
b100000111 $
#264
04
02
05
06
07
13
01
10
0>
0A
1;
0@
1<
0?
0=
0:
19
0/
0.
18
0&
0'
0(
1)
b100001000 #
b100001000 $
#265
14
03
0;
1/
1>
1A
09
1&
b100001001 #
b100001001 $
#266
16
05
03
04
17
02
1<
0.
0>
0A
0;
0@
19
1/
0&
1'
b100001010 #
b100001010 $
#267
15
12
0<
16
1.
1;
1@
0/
1>
1A
09
1&
b100001011 #
b100001011 $
#268
05
03
01
04
10
12
06
17
0=
0:
18
0>
0A
1;
0@
0<
0?
19
0/
1.
0&
0'
1(
b100001100 #
b100001100 $
#269
07
02
15
16
0;
1/
1>
1A
09
1&
b100001101 #
b100001101 $
#270
07
02
01
14
03
10
15
0=
0:
16
18
0<
0?
1.
0>
0A
0;
0@
19
1/
0&
1'
b100001110 #
b100001110 $
#271
05
11
00
06
1=
1:
08
1<
1?
04
0.
1;
1@
0/
1>
1A
09
1&
b100001111 #
b100001111 $
