lab_sum/full_sumres_display7/sim/top.vcd
$date
	Thu Nov  9 08:51:14 2023
$end
$version
	Icarus Verilog
$end
$timescale
	10ns
$end
$scope module testbech $end
$var wire 10 ! value [9:0] $end
$var parameter 32 " INPUT_SIZE $end
$var parameter 32 # OUTPUT_SIZE $end
$var reg 1 $ clk $end
$var reg 9 % inputs [8:0] $end
$var integer 32 & i [31:0] $end
$scope module dut $end
$var wire 1 $ clk_in $end
$var wire 4 ' in_a [3:0] $end
$var wire 4 ( in_b [3:0] $end
$var wire 1 ) op $end
$var wire 1 * uno $end
$var wire 4 + tres [3:0] $end
$var wire 1 , sign0 $end
$var wire 1 - seis $end
$var wire 1 . g $end
$var wire 1 / f $end
$var wire 1 0 e $end
$var wire 4 1 dos [3:0] $end
$var wire 1 2 dis1 $end
$var wire 1 3 dis0 $end
$var wire 1 4 d $end
$var wire 4 5 cuatro [3:0] $end
$var wire 4 6 cinco [3:0] $end
$var wire 1 7 c $end
$var wire 1 8 b $end
$var wire 1 9 a $end
$scope module deco1 $end
$var wire 1 : s0 $end
$var wire 1 ; s1 $end
$var wire 1 < s2 $end
$var wire 1 = s3 $end
$var wire 4 > u [3:0] $end
$var wire 4 ? out [3:0] $end
$var wire 4 @ d [3:0] $end
$var wire 1 * carryout $end
$upscope $end
$scope module deco2 $end
$var wire 1 9 a $end
$var wire 1 8 b $end
$var wire 1 7 c $end
$var wire 1 4 d $end
$var wire 1 0 e $end
$var wire 1 / f $end
$var wire 1 . g $end
$var wire 1 A s0 $end
$var wire 1 B s1 $end
$var wire 1 C s2 $end
$var wire 1 D s3 $end
$var wire 4 E v [3:0] $end
$upscope $end
$scope module demux $end
$var wire 1 F in $end
$var wire 1 - sel $end
$var wire 1 3 out_si $end
$var wire 1 2 out_no $end
$var reg 2 G temp [1:0] $end
$upscope $end
$scope module divi $end
$var wire 1 $ clk_in $end
$var parameter 7 H LIMIT $end
$var parameter 32 I SIZE $end
$var reg 1 - clk_out $end
$var reg 7 J count [6:0] $end
$upscope $end
$scope module mux $end
$var wire 4 K in_no [3:0] $end
$var wire 4 L in_si [3:0] $end
$var wire 1 - sel $end
$var wire 4 M sal [3:0] $end
$upscope $end
$scope module sum $end
$var wire 4 N in_a [3:0] $end
$var wire 4 O in_b [3:0] $end
$var wire 1 ) op $end
$var wire 1 * out_cy0 $end
$var wire 1 , sign0 $end
$var wire 1 P t_cy0 $end
$var wire 4 Q out_s2 [3:0] $end
$var wire 4 R in_bm [3:0] $end
$var wire 1 S cable2 $end
$var wire 1 T cable1 $end
$var wire 1 U cable0 $end
$var reg 1 V operar $end
$var reg 1 , sign $end
$var reg 4 W t_a [3:0] $end
$var reg 4 X t_b [3:0] $end
$var reg 4 Y temporal [3:0] $end
$scope module ope $end
$var wire 4 Z arr [3:0] $end
$var wire 1 V sc $end
$var wire 4 [ sxor [3:0] $end
$var wire 4 \ sc_m [3:0] $end
$upscope $end
$scope module sumres0 $end
$var wire 1 ] a $end
$var wire 1 ^ b $end
$var wire 1 V in_cy $end
$var wire 1 U out_c $end
$var wire 1 _ out_s $end
$upscope $end
$scope module sumres1 $end
$var wire 1 ` a $end
$var wire 1 a b $end
$var wire 1 U in_cy $end
$var wire 1 T out_c $end
$var wire 1 b out_s $end
$upscope $end
$scope module sumres2 $end
$var wire 1 c a $end
$var wire 1 d b $end
$var wire 1 T in_cy $end
$var wire 1 S out_c $end
$var wire 1 e out_s $end
$upscope $end
$scope module sumres3 $end
$var wire 1 f a $end
$var wire 1 g b $end
$var wire 1 S in_cy $end
$var wire 1 P out_c $end
$var wire 1 h out_s $end
$upscope $end
$upscope $end
$upscope $end
$upscope $end
$enddefinitions $end
$comment Show the parameter values. $end
$dumpall
b111 I
b1100100 H
b1010 #
b1001 "
$end
#0
$dumpvars
0h
0g
0f
0e
0d
0c
0b
0a
0`
0_
0^
0]
b0 \
b0 [
b0 Z
bx Y
b0 X
b0 W
0V
0U
0T
0S
b0 R
b0 Q
0P
b0 O
b0 N
b0 M
b0 L
b0 K
b0 J
b10 G
1F
b0 E
1D
1C
1B
1A
b0 @
b0 ?
b0 >
1=
1<
1;
1:
09
08
07
b0 6
b0 5
04
03
12
b0 1
00
0/
1.
0-
1,
b0 +
0*
0)
b0 (
b0 '
b0 &
b0 %
0$
b1110 !
$end
#1
1)
b1 %
b1 &
#2
b1 J
b1 5
b1 >
b1 K
b1 1
b1 ?
b1 Q
1_
1^
b1 R
b1 [
b1 X
b1 Z
b1 (
b1 O
0)
b10 %
b10 &
1$
#3
1P
1S
1;
1<
b1 5
b1 >
b1 K
1T
0h
0e
1U
1g
1d
1a
b1 1
b1 ?
b1 Q
1_
b1111 R
b1111 [
1]
b1111 \
1V
b1010 !
0,
b0 X
b0 Z
b1 W
b0 Y
1)
b11 %
b11 &
#4
1.
0/
00
1D
1A
b0 6
b0 E
b0 M
b0 +
b0 @
b0 L
1;
1<
0=
0P
0S
b10 5
b10 >
b10 K
0T
0h
0e
1b
1:
0U
0*
0g
0d
0^
b10 1
b10 ?
b10 Q
0_
b10 R
b10 [
0]
b0 \
0V
b10 X
b10 Z
b0 W
b1110 !
1,
b10 (
b10 O
0)
b100 %
b100 &
0$
#5
04
0/
09
00
1D
b0 6
b0 E
b0 M
b0 +
b0 @
b0 L
1P
1;
1U
0=
1S
b10 5
b10 >
b10 K
0h
1b
1T
1g
1d
1^
b10 1
b10 ?
b10 Q
0_
b1111 R
b1111 [
1`
b1111 \
1V
b1010 !
0,
b0 X
b0 Z
b10 W
1)
b101 %
b101 &
#6
b10 J
1.
0/
00
1D
1A
b0 6
b0 E
b0 M
b0 +
b0 @
b0 L
1;
1<
0P
0S
b11 5
b11 >
b11 K
0T
0h
0e
1:
0U
0*
0g
0d
b11 1
b11 ?
b11 Q
1_
b11 R
b11 [
0`
b0 \
0V
b11 X
b11 Z
b0 W
b1110 !
1,
b11 (
b11 O
0)
b110 %
b110 &
1$
#7
04
0/
09
00
1D
b0 6
b0 E
b0 M
b0 +
b0 @
b0 L
b11 5
b11 >
b11 K
1P
1;
1S
0h
1T
1U
1g
1d
b11 1
b11 ?
b11 Q
1_
b1111 R
b1111 [
1]
1`
b1111 \
1V
b1010 !
0,
b0 X
b0 Z
b11 W
1)
b111 %
b111 &
#8
04
0/
09
00
1D
0<
b0 6
b0 E
b0 M
b100 5
b100 >
b100 K
0S
b0 +
b0 @
b0 L
1;
1=
1e
0P
0T
0h
0b
1:
0U
0*
0g
0a
0^
b100 1
b100 ?
b100 Q
0_
b100 R
b100 [
0]
0`
b0 \
0V
b100 X
b100 Z
b0 W
b1110 !
1,
b100 (
b100 O
0)
b1000 %
b1000 &
0$
#9
1T
1=
b100 5
b100 >
b100 K
1U
0<
1P
0b
1e
1S
1g
1a
1^
b100 1
b100 ?
b100 Q
0_
b1111 R
b1111 [
1c
b1111 \
1V
b1010 !
0,
b0 X
b0 Z
b100 W
1)
b1001 %
b1001 &
#10
b11 J
04
09
00
1D
1.
0/
07
1A
0S
1;
b101 5
b101 >
b101 K
b0 6
b0 E
b0 M
0P
0<
0T
b0 +
b0 @
b0 L
0h
1:
1e
0U
0*
0g
0a
b101 1
b101 ?
b101 Q
1_
b101 R
b101 [
0c
b0 \
0V
b101 X
b101 Z
b0 W
b1110 !
1,
b101 (
b101 O
0)
b1010 %
b1010 &
1$
#11
b101 5
b101 >
b101 K
0<
1P
1T
1e
1S
1U
1g
1a
b101 1
b101 ?
b101 Q
1_
b1111 R
b1111 [
1]
1c
b1111 \
1V
b1010 !
0,
b0 X
b0 Z
b101 W
1)
b1011 %
b1011 &
#12
04
09
00
1D
1.
0/
07
b110 5
b110 >
b110 K
1A
0S
1;
0=
b0 6
b0 E
b0 M
0P
0<
0T
b0 +
b0 @
b0 L
0h
1b
1:
1e
0U
0*
0g
0^
b110 1
b110 ?
b110 Q
0_
b110 R
b110 [
0]
0c
b0 \
0V
b110 X
b110 Z
b0 W
b1110 !
1,
b110 (
b110 O
0)
b1100 %
b1100 &
0$
#13
b110 5
b110 >
b110 K
1U
0=
0<
1P
1b
1T
1e
1S
1g
1^
b110 1
b110 ?
b110 Q
0_
b1111 R
b1111 [
1`
1c
b1111 \
1V
b1010 !
0,
b0 X
b0 Z
b110 W
1)
b1101 %
b1101 &
#14
b100 J
04
09
00
1D
1.
0/
07
1A
b111 5
b111 >
b111 K
0S
1;
b0 6
b0 E
b0 M
0P
0<
0T
b0 +
b0 @
b0 L
0h
1:
1e
0U
0*
0g
b111 1
b111 ?
b111 Q
1_
b111 R
b111 [
0`
0c
b0 \
0V
b111 X
b111 Z
b0 W
b1110 !
1,
b111 (
b111 O
0)
b1110 %
b1110 &
1$
#15
b111 5
b111 >
b111 K
0<
1P
1T
1e
1S
1U
1g
b111 1
b111 ?
b111 Q
1_
b1111 R
b1111 [
1]
1`
1c
b1111 \
1V
b1010 !
0,
b0 X
b0 Z
b111 W
1)
b1111 %
b1111 &
#16
04
09
1.
00
1D
0/
07
0;
b1000 5
b1000 >
b1000 K
1A
0P
1h
1=
b0 6
b0 E
b0 M
0S
1<
0T
b0 +
b0 @
b0 L
0b
1:
0e
0U
0*
0d
0a
0^
b1000 1
b1000 ?
b1000 Q
0_
b1000 R
b1000 [
0]
0`
0c
b0 \
0V
b1000 X
b1000 Z
b0 W
b1110 !
1,
b1000 (
b1000 O
0)
b10000 %
b10000 &
0$
#17
1S
1T
1<
1=
1U
0;
b1000 5
b1000 >
b1000 K
0e
0b
1h
1P
1d
1a
1^
b1000 1
b1000 ?
b1000 Q
0_
b1111 R
b1111 [
1f
b1111 \
1V
b1010 !
0,
b0 X
b0 Z
b1000 W
1)
b10001 %
b10001 &
#18
b101 J
04
09
00
1D
1.
0/
07
1A
0P
1<
b0 6
b0 E
b0 M
0S
0;
b1001 5
b1001 >
b1001 K
0T
b0 +
b0 @
b0 L
0e
1:
1h
0U
0*
0d
0a
b1001 1
b1001 ?
b1001 Q
1_
b1001 R
b1001 [
0f
b0 \
0V
b1001 X
b1001 Z
b0 W
b1110 !
1,
b1001 (
b1001 O
0)
b10010 %
b10010 &
1$
#19
1S
1<
0;
b1001 5
b1001 >
b1001 K
1T
0e
1h
1P
1U
1d
1a
b1001 1
b1001 ?
b1001 Q
1_
b1111 R
b1111 [
1]
1f
b1111 \
1V
b1010 !
0,
b0 X
b0 Z
b1001 W
1)
b10011 %
b10011 &
#20
14
19
10
0D
1.
1/
07
1A
0P
1<
0=
b1 6
b1 E
b1 M
0S
0;
b0 5
b0 >
b0 K
0T
b1 +
b1 @
b1 L
0e
1b
1:
1h
0U
0*
0d
0^
b1010 1
b1010 ?
b1010 Q
0_
b1010 R
b1010 [
0]
0f
b0 \
0V
b1010 X
b1010 Z
b0 W
b1001111110 !
1,
b1010 (
b1010 O
0)
b10100 %
b10100 &
0$
#21
14
1/
19
10
0D
b1 6
b1 E
b1 M
b1 +
b1 @
b1 L
1U
0=
1S
0;
b0 5
b0 >
b0 K
1b
1T
1h
1P
1d
1^
b1010 1
b1010 ?
b1010 Q
0_
b1111 R
b1111 [
1`
1f
b1111 \
1V
b1001111010 !
0,
b0 X
b0 Z
b1010 W
1)
b10101 %
b10101 &
#22
b110 J
1/
14
10
0D
19
1.
1A
0P
1<
b1 6
b1 E
b1 M
0S
0;
b1 5
b1 >
b1 K
0T
b1 +
b1 @
b1 L
0e
1:
1h
0U
0*
0d
b1011 1
b1011 ?
b1011 Q
1_
b1011 R
b1011 [
0`
0f
b0 \
0V
b1011 X
b1011 Z
b0 W
b1001111110 !
1,
b1011 (
b1011 O
0)
b10110 %
b10110 &
1$
#23
14
1/
19
10
0D
b1 6
b1 E
b1 M
b1 +
b1 @
b1 L
b1 5
b1 >
b1 K
1S
0;
1T
1h
1P
1U
1d
b1011 1
b1011 ?
b1011 Q
1_
b1111 R
b1111 [
1]
1`
1f
b1111 \
1V
b1001111010 !
0,
b0 X
b0 Z
b1011 W
1)
b10111 %
b10111 &
#24
1/
10
0D
14
19
1.
0P
0<
1A
0S
1=
1e
b10 5
b10 >
b10 K
b1 6
b1 E
b1 M
0;
0T
b1 +
b1 @
b1 L
0b
1:
1h
0U
0*
0a
0^
b1100 1
b1100 ?
b1100 Q
0_
b1100 R
b1100 [
0]
0`
0f
b0 \
0V
b1100 X
b1100 Z
b0 W
b1001111110 !
1,
b1100 (
b1100 O
0)
b11000 %
b11000 &
0$
#25
14
1/
19
10
0D
b1 6
b1 E
b1 M
b1 +
b1 @
b1 L
1T
1=
b10 5
b10 >
b10 K
1U
0<
0;
0b
1e
1S
1h
1P
1a
1^
b1100 1
b1100 ?
b1100 Q
0_
b1111 R
b1111 [
1c
1f
b1111 \
1V
b1001111010 !
0,
b0 X
b0 Z
b1100 W
1)
b11001 %
b11001 &
#26
b111 J
1/
10
0D
14
19
1.
0P
1A
0S
b11 5
b11 >
b11 K
b1 6
b1 E
b1 M
0<
0;
0T
b1 +
b1 @
b1 L
1:
1e
1h
0U
0*
0a
b1101 1
b1101 ?
b1101 Q
1_
b1101 R
b1101 [
0c
0f
b0 \
0V
b1101 X
b1101 Z
b0 W
b1001111110 !
1,
b1101 (
b1101 O
0)
b11010 %
b11010 &
1$
#27
14
1/
19
10
0D
b11 5
b11 >
b11 K
b1 6
b1 E
b1 M
b1 +
b1 @
b1 L
0<
0;
1T
1e
1S
1h
1P
1U
1a
b1101 1
b1101 ?
b1101 Q
1_
b1111 R
b1111 [
1]
1c
1f
b1111 \
1V
b1001111010 !
0,
b0 X
b0 Z
b1101 W
1)
b11011 %
b11011 &
#28
14
19
1.
0P
b100 5
b100 >
b100 K
1A
0S
0=
b1 6
b1 E
b1 M
0<
0;
0T
b1 +
b1 @
b1 L
1b
1:
1e
1h
0U
0*
0^
b1110 1
b1110 ?
b1110 Q
0_
b1110 R
b1110 [
0]
0c
0f
b0 \
0V
b1110 X
b1110 Z
b0 W
b1001111110 !
1,
b1110 (
b1110 O
0)
b11100 %
b11100 &
0$
#29
14
1/
19
10
0D
b1 6
b1 E
b1 M
b1 +
b1 @
b1 L
b100 5
b100 >
b100 K
1U
0=
0<
0;
1b
1T
1e
1S
1h
1P
1^
b1110 1
b1110 ?
b1110 Q
0_
b1111 R
b1111 [
1`
1c
1f
b1111 \
1V
b1001111010 !
0,
b0 X
b0 Z
b1110 W
1)
b11101 %
b11101 &
#30
b1000 J
14
19
1.
0P
1A
b101 5
b101 >
b101 K
0S
b1 6
b1 E
b1 M
0<
0;
0T
b1 +
b1 @
b1 L
1:
1e
1h
0U
0*
b1111 1
b1111 ?
b1111 Q
1_
0`
0c
0f
b0 \
0V
b1111 X
b1111 Z
b0 W
b1001111110 !
1,
b1111 (
b1111 O
0)
b11110 %
b11110 &
1$
#31
b101 5
b101 >
b101 K
0<
0;
1T
1e
1S
1h
1P
1U
b1111 1
b1111 ?
b1111 Q
1_
1]
1`
1c
1f
b1111 \
1V
b1001111010 !
0,
b0 X
b0 Z
b1111 W
1)
b11111 %
b11111 &
#32
0/
04
00
1D
09
1.
b1 5
b1 >
b1 K
1A
0P
0S
0T
b0 6
b0 E
b0 M
1=
1<
1;
0U
b0 +
b0 @
b0 L
1:
0b
0e
0h
0g
0d
0a
0^
0*
b0 R
b0 [
b1 1
b1 ?
b1 Q
1_
0`
0c
0f
b0 \
0V
b1 W
b1110 !
1,
b1 '
b1 N
b0 (
b0 O
0)
b100000 %
b100000 &
0$
#33
1P
1S
1;
1<
1T
1=
0h
0e
b1 5
b1 >
b1 K
0b
1g
1d
1a
1^
1U
b1111 R
b1111 [
b1 1
b1 ?
b1 Q
1_
b1111 \
1V
1)
b100001 %
b100001 &
#34
b1001 J
1.
0/
b1110 !
00
1D
1A
b0 6
b0 E
b0 M
b0 +
b0 @
b0 L
1;
1<
0=
0P
0S
0T
b10 5
b10 >
b10 K
0h
0e
1b
1:
0*
0g
0d
0a
b10 1
b10 ?
b10 Q
0_
b1 R
b1 [
b0 \
0V
b1 X
b1 Z
b1 (
b1 O
0)
b100010 %
b100010 &
1$
#35
b0 5
b0 >
b0 K
1=
0b
b0 1
b0 ?
b0 Q
0_
0U
0^
b0 R
b0 [
0]
b0 X
b0 Z
b0 W
1)
b100011 %
b100011 &
#36
0=
b11 5
b11 >
b11 K
1b
b11 1
b11 ?
b11 Q
1_
1a
b10 R
b10 [
1]
b10 X
b10 Z
b1 W
b10 (
b10 O
0)
b100100 %
b100100 &
0$
#37
b1 5
b1 >
b1 K
1=
1P
1;
0b
1S
0h
1T
0U
1g
1d
b1 1
b1 ?
b1 Q
1_
b1110 R
b1110 [
0]
1`
b1111 \
1V
b1010 !
0,
b1 X
b1 Z
b10 W
b1 Y
1)
b100101 %
b100101 &
#38
b1010 J
04
0/
09
00
1D
0<
b0 6
b0 E
b0 M
1e
b0 +
b0 @
b0 L
1;
0P
1=
0S
b100 5
b100 >
b100 K
0h
1U
1:
0b
1T
0*
0g
0d
1^
b100 1
b100 ?
b100 Q
0_
b11 R
b11 [
1]
0`
b0 \
0V
b11 X
b11 Z
b1 W
b1110 !
1,
b11 (
b11 O
0)
b100110 %
b100110 &
1$
#39
04
0/
09
00
1D
b0 6
b0 E
b0 M
b0 +
b0 @
b0 L
1P
1;
1<
b10 5
b10 >
b10 K
1S
0=
0h
0e
1b
1g
1d
0^
b10 1
b10 ?
b10 Q
0_
b1110 R
b1110 [
1`
b1111 \
1V
b1010 !
0,
b1 X
b1 Z
b11 W
1)
b100111 %
b100111 &
#40
04
0/
09
00
1D
0<
b0 6
b0 E
b0 M
0S
b0 +
b0 @
b0 L
1;
1=
1e
0P
b101 5
b101 >
b101 K
0T
0h
0b
1:
0U
0*
0g
0a
b101 1
b101 ?
b101 Q
1_
b100 R
b100 [
0`
b0 \
0V
b100 X
b100 Z
b1 W
b1110 !
1,
b100 (
b100 O
0)
b101000 %
b101000 &
0$
#41
b11 5
b11 >
b11 K
0=
1b
1<
1P
0T
0e
1S
0U
1g
1a
b11 1
b11 ?
b11 Q
1_
b1110 R
b1110 [
0]
1c
b1111 \
1V
b1010 !
0,
b1 X
b1 Z
b100 W
1)
b101001 %
b101001 &
#42
b1011 J
1.
0/
00
1D
1A
b0 6
b0 E
b0 M
b110 5
b110 >
b110 K
b0 +
b0 @
b0 L
0<
0P
1U
1:
1e
0S
0*
0g
0a
1^
b110 1
b110 ?
b110 Q
0_
b101 R
b101 [
1]
0c
b0 \
0V
b101 X
b101 Z
b1 W
b1110 !
1,
b101 (
b101 O
0)
b101010 %
b101010 &
1$
#43
b100 5
b100 >
b100 K
1=
1T
0<
1P
0b
1e
1S
1g
1a
0^
b100 1
b100 ?
b100 Q
0_
b1110 R
b1110 [
1c
b1111 \
1V
b1010 !
0,
b1 X
b1 Z
b101 W
1)
b101011 %
b101011 &
#44
04
09
00
1D
1.
0/
07
1A
0S
1;
b111 5
b111 >
b111 K
0=
b0 6
b0 E
b0 M
0P
0<
0T
b0 +
b0 @
b0 L
0h
1b
1:
1e
0U
0*
0g
b111 1
b111 ?
b111 Q
1_
b110 R
b110 [
0c
b0 \
0V
b110 X
b110 Z
b1 W
b1110 !
1,
b110 (
b110 O
0)
b101100 %
b101100 &
0$
#45
b101 5
b101 >
b101 K
1=
0b
0<
1P
1T
1e
1S
0U
1g
b101 1
b101 ?
b101 Q
1_
b1110 R
b1110 [
0]
1`
1c
b1111 \
1V
b1010 !
0,
b1 X
b1 Z
b110 W
1)
b101101 %
b101101 &
#46
b1100 J
04
09
1.
00
1D
0/
07
1A
b1000 5
b1000 >
b1000 K
0;
b0 6
b0 E
b0 M
0P
1=
1S
1<
b0 +
b0 @
b0 L
1h
1U
1:
0b
1T
0e
0*
0g
1^
b1000 1
b1000 ?
b1000 Q
0_
b111 R
b111 [
1]
0`
0c
b0 \
0V
b111 X
b111 Z
b1 W
b1110 !
1,
b111 (
b111 O
0)
b101110 %
b101110 &
1$
#47
04
0/
09
00
1D
b0 6
b0 E
b0 M
b0 +
b0 @
b0 L
1;
1P
0=
0<
b110 5
b110 >
b110 K
0h
1b
1e
1g
0^
b110 1
b110 ?
b110 Q
0_
b1110 R
b1110 [
1`
1c
b1111 \
1V
b1010 !
0,
b1 X
b1 Z
b111 W
1)
b101111 %
b101111 &
#48
04
09
1.
00
1D
0/
07
0;
1A
0P
b1001 5
b1001 >
b1001 K
1h
1=
b0 6
b0 E
b0 M
0S
1<
0T
b0 +
b0 @
b0 L
0b
1:
0e
0U
0*
0d
0a
b1001 1
b1001 ?
b1001 Q
1_
b1000 R
b1000 [
0`
0c
b0 \
0V
b1000 X
b1000 Z
b1 W
b1110 !
1,
b1000 (
b1000 O
0)
b110000 %
b110000 &
0$
#49
04
0/
09
00
1D
b0 6
b0 E
b0 M
b0 +
b0 @
b0 L
0=
0S
0<
1b
1;
b111 5
b111 >
b111 K
0T
1e
0h
1P
0U
1d
1a
b111 1
b111 ?
b111 Q
1_
b1110 R
b1110 [
0]
1f
b1111 \
1V
b1010 !
0,
b1 X
b1 Z
b1000 W
1)
b110001 %
b110001 &
#50
b1101 J
14
19
10
0D
1.
1/
07
1A
b0 5
b0 >
b0 K
1<
b1 6
b1 E
b1 M
0;
b1 +
b1 @
b1 L
0e
1U
1:
1h
0P
0*
0d
0a
1^
b1010 1
b1010 ?
b1010 Q
0_
b1001 R
b1001 [
1]
0f
b0 \
0V
b1001 X
b1001 Z
b1 W
b1001111110 !
1,
b1001 (
b1001 O
0)
b110010 %
b110010 &
1$
#51
04
0/
09
00
1D
b0 6
b0 E
b0 M
b0 +
b0 @
b0 L
1S
1<
1=
1T
0;
b1000 5
b1000 >
b1000 K
0e
0b
1h
1P
1d
1a
0^
b1000 1
b1000 ?
b1000 Q
0_
b1110 R
b1110 [
1f
b1111 \
1V
b1010 !
0,
b1 X
b1 Z
b1001 W
1)
b110011 %
b110011 &
#52
14
19
10
0D
1.
1/
07
1A
0P
1<
0=
b1 6
b1 E
b1 M
0S
0;
b1 5
b1 >
b1 K
0T
b1 +
b1 @
b1 L
0e
1b
1:
1h
0U
0*
0d
b1011 1
b1011 ?
b1011 Q
1_
b1010 R
b1010 [
0f
b0 \
0V
b1010 X
b1010 Z
b1 W
b1001111110 !
1,
b1010 (
b1010 O
0)
b110100 %
b110100 &
0$
#53
04
0/
09
00
1D
b1001 5
b1001 >
b1001 K
b0 6
b0 E
b0 M
b0 +
b0 @
b0 L
1=
0b
1S
0;
1T
1h
1P
0U
1d
b1001 1
b1001 ?
b1001 Q
1_
b1110 R
b1110 [
0]
1`
1f
b1111 \
1V
b1010 !
0,
b1 X
b1 Z
b1010 W
1)
b110101 %
b110101 &
#54
b1110 J
14
19
10
0D
1.
0<
1/
07
1A
1e
0P
b1 6
b1 E
b1 M
1=
0S
0;
b10 5
b10 >
b10 K
b1 +
b1 @
b1 L
1U
1:
0b
1T
1h
0*
0d
1^
b1100 1
b1100 ?
b1100 Q
0_
b1011 R
b1011 [
1]
0`
0f
b0 \
0V
b1011 X
b1011 Z
b1 W
b1001111110 !
1,
b1011 (
b1011 O
0)
b110110 %
b110110 &
1$
#55
14
1/
19
10
0D
b1 6
b1 E
b1 M
b1 +
b1 @
b1 L
1<
b0 5
b0 >
b0 K
1S
0=
0;
0e
1b
1h
1P
1d
0^
b1010 1
b1010 ?
b1010 Q
0_
b1110 R
b1110 [
1`
1f
b1111 \
1V
b1001111010 !
0,
b1 X
b1 Z
b1011 W
1)
b110111 %
b110111 &
#56
1/
10
0D
14
19
1.
0P
0<
1A
0S
1=
1e
b1 6
b1 E
b1 M
0;
b11 5
b11 >
b11 K
0T
b1 +
b1 @
b1 L
0b
1:
1h
0U
0*
0a
b1101 1
b1101 ?
b1101 Q
1_
b1100 R
b1100 [
0`
0f
b0 \
0V
b1100 X
b1100 Z
b1 W
b1001111110 !
1,
b1100 (
b1100 O
0)
b111000 %
b111000 &
0$
#57
b1 5
b1 >
b1 K
0=
1b
1<
0;
0T
0e
1S
1h
1P
0U
1a
b1011 1
b1011 ?
b1011 Q
1_
b1110 R
b1110 [
0]
1c
1f
b1111 \
1V
b1001111010 !
0,
b1 X
b1 Z
b1100 W
1)
b111001 %
b111001 &
#58
b1111 J
14
19
1.
1A
b100 5
b100 >
b100 K
b1 6
b1 E
b1 M
0<
0P
0;
b1 +
b1 @
b1 L
1U
1:
1e
0S
1h
0*
0a
1^
b1110 1
b1110 ?
b1110 Q
0_
b1101 R
b1101 [
1]
0c
0f
b0 \
0V
b1101 X
b1101 Z
b1 W
b1001111110 !
1,
b1101 (
b1101 O
0)
b111010 %
b111010 &
1$
#59
14
1/
19
10
0D
b1 6
b1 E
b1 M
b1 +
b1 @
b1 L
b10 5
b10 >
b10 K
1=
1T
0<
0;
0b
1e
1S
1h
1P
1a
0^
b1100 1
b1100 ?
b1100 Q
0_
b1110 R
b1110 [
1c
1f
b1111 \
1V
b1001111010 !
0,
b1 X
b1 Z
b1101 W
1)
b111011 %
b111011 &
#60
14
19
1.
0P
1A
0S
b101 5
b101 >
b101 K
0=
b1 6
b1 E
b1 M
0<
0;
0T
b1 +
b1 @
b1 L
1b
1:
1e
1h
0U
0*
b1111 1
b1111 ?
b1111 Q
1_
0c
0f
b0 \
0V
b1110 X
b1110 Z
b1 W
b1001111110 !
1,
b1110 (
b1110 O
0)
b111100 %
b111100 &
0$
#61
1=
b11 5
b11 >
b11 K
0b
0<
0;
1T
1e
1S
1h
1P
0U
b1101 1
b1101 ?
b1101 Q
1_
0]
1`
1c
1f
b1111 \
1V
b1001111010 !
0,
b1 X
b1 Z
b1110 W
1)
b111101 %
b111101 &
#62
b10000 J
1/
14
10
0D
19
1.
b110 5
b110 >
b110 K
1A
1P
b1 6
b1 E
b1 M
1=
1S
1<
1;
b1 +
b1 @
b1 L
1U
0:
0b
1T
0e
0h
1*
1^
b0 1
b0 ?
b0 Q
0_
b1111 R
b1111 [
1]
0`
0c
0f
b0 \
0V
b1111 X
b1111 Z
b1 W
b1001111110 !
1,
b1111 (
b1111 O
0)
b111110 %
b111110 &
1$
#63
0=
0<
0;
b100 5
b100 >
b100 K
1:
1b
1e
1h
0*
0^
b1110 1
b1110 ?
b1110 Q
0_
b1110 R
b1110 [
1`
1c
1f
b1111 \
1V
b1001111010 !
0,
b1 X
b1 Z
b1111 W
1)
b111111 %
b111111 &
#64
0/
00
1D
04
09
1.
b10 5
b10 >
b10 K
1A
b0 6
b0 E
b0 M
0P
0S
1<
1;
b0 +
b0 @
b0 L
0T
1:
0e
0h
0U
0*
0g
0d
0a
b10 1
b10 ?
b10 Q
0_
b0 R
b0 [
0]
0c
0f
b0 \
0V
b0 X
b0 Z
b10 W
b1110 !
1,
b10 '
b10 N
b0 (
b0 O
0)
b1000000 %
b1000000 &
0$
#65
04
0/
09
b1110 !
00
1D
b0 6
b0 E
b0 M
b0 +
b0 @
b0 L
1P
1;
0=
1S
1U
0h
1b
1T
b10 5
b10 >
b10 K
1g
1d
1a
1^
b1111 R
b1111 [
b10 1
b10 ?
b10 Q
0_
b1111 \
1V
1)
b1000001 %
b1000001 &
#66
b10001 J
04
0/
09
b1110 !
00
1D
b0 6
b0 E
b0 M
b0 +
b0 @
b0 L
1;
0P
0S
b11 5
b11 >
b11 K
0h
0T
1:
0U
0*
0g
0d
0a
b11 1
b11 ?
b11 Q
1_
b1 R
b1 [
b0 \
0V
b1 X
b1 Z
b1 (
b1 O
0)
b1000010 %
b1000010 &
1$
#67
1P
1;
b1 5
b1 >
b1 K
1S
1=
0h
1T
0b
1g
1d
1a
0^
0U
b1110 R
b1110 [
b1 1
b1 ?
b1 Q
1_
b1111 \
1V
1)
b1000011 %
b1000011 &
#68
1.
0/
b1110 !
00
1D
1A
b0 6
b0 E
b0 M
b0 +
b0 @
b0 L
1;
0<
0P
0S
b100 5
b100 >
b100 K
0h
1e
1:
0*
0g
0d
b100 1
b100 ?
b100 Q
0_
b10 R
b10 [
b0 \
0V
b10 X
b10 Z
b10 (
b10 O
0)
b1000100 %
b1000100 &
0$
#69
b0 5
b0 >
b0 K
1<
1=
0e
b0 1
b0 ?
b0 Q
0b
0T
0a
b0 R
b0 [
0`
b0 X
b0 Z
b0 W
1)
b1000101 %
b1000101 &
#70
b10010 J
0<
b101 5
b101 >
b101 K
1e
1=
1T
1_
b101 1
b101 ?
b101 Q
0b
1a
1^
b11 R
b11 [
1`
b11 X
b11 Z
b10 W
b11 (
b11 O
0)
b1000110 %
b1000110 &
1$
#71
1P
1;
1<
b1 5
b1 >
b1 K
1S
0h
0e
1U
1g
1d
0a
b1 1
b1 ?
b1 Q
1_
b1101 R
b1101 [
1]
b1111 \
1V
b1010 !
0,
b10 X
b10 Z
b11 W
b10 Y
1)
b1000111 %
b1000111 &
#72
04
0/
09
00
1D
0<
b0 6
b0 E
b0 M
0S
b0 +
b0 @
b0 L
1;
0=
1e
0P
b110 5
b110 >
b110 K
0T
0h
1b
1:
0U
0*
0g
0^
b110 1
b110 ?
b110 Q
0_
b100 R
b100 [
0]
b0 \
0V
b100 X
b100 Z
b10 W
b1110 !
1,
b100 (
b100 O
0)
b1001000 %
b1001000 &
0$
#73
b10 5
b10 >
b10 K
1U
0=
1<
1P
1b
0e
1S
1g
1^
b10 1
b10 ?
b10 Q
0_
b1101 R
b1101 [
0`
1c
b1111 \
1V
b1010 !
0,
b10 X
b10 Z
b100 W
1)
b1001001 %
b1001001 &
#74
b10011 J
1.
0/
00
1D
1A
b0 6
b0 E
b0 M
b0 +
b0 @
b0 L
0<
0P
b111 5
b111 >
b111 K
1:
1e
0S
0U
0*
0g
b111 1
b111 ?
b111 Q
1_
b101 R
b101 [
1`
0c
b0 \
0V
b101 X
b101 Z
b10 W
b1110 !
1,
b101 (
b101 O
0)
b1001010 %
b1001010 &
1$
